@startuml

left to right direction

:Nutzer: as user
:Berechtigungskontrollierende Instanz: as rights_entity

rectangle Bootloader {
    (Eigenen Schlüssel übertragen) as transfer_key
    (Anwendungsprogramm übertragen) as transfer_app
    
    (Root of Trust Schlüssel ändern) as root_of_trust
    
    transfer_key ..> (Schlüsselsignatur gegen Root of Trust prüfen) : <<include>>
    transfer_app ..> (Signatur des übertragenen Programms prüfen) : <<include>>
    transfer_app ..> (Anwendungsprogramm speichern) : <<include>>
    
    user --> transfer_key
    user --> transfer_app
    
    rights_entity --> root_of_trust
}


@enduml